{
  "project_info": {
    "project_id": "roomster.net:api-project-459779817295",
    "project_number": "459779817295",
    "name": "Roomster"
  },
  "client": [
    {
      "client_info": {
        "mobilesdk_app_id": "1:459779817295:android:d70c328a2c998edb",
        "client_id": "android:com.roomster",
        "client_type": 1,
        "android_client_info": {
          "package_name": "com.roomster"
        }
      },
      "oauth_client": [],
      "api_key": [],
      "services": {
        "analytics_service": {
          "status": 2,
          "analytics_property": {
            "tracking_id": "UA-283826-8"
          }
        },
        "cloud_messaging_service": {
          "status": 2,
          "apns_config": []
        },
        "appinvite_service": {
          "status": 1,
          "other_platform_oauth_client": []
        },
        "google_signin_service": {
          "status": 1
        },
        "ads_service": {
          "status": 1
        }
      }
    }
  ],
  "client_info": [],
  "ARTIFACT_VERSION": "1"
}